{
  "info1": "======================================================================================================",
  "info2": "= This Project was generated with generjee. http://generjee.com                                      =",
  "info3": "= You can import this file into the generjee tool, then change the project model and generate again. =",
  "info4": "======================================================================================================",
  "entities": [
    {
      "name": "User",
      "id": "User",
      "lookupField": "username",
      "fields": [
        {
          "id": 0,
          "name": "id",
          "type": "Autoincremented ID",
          "editable": false,
          "showInTable": false,
          "required": true
        },
        {
          "id": "username",
          "name": "Username",
          "type": "String",
          "editable": false,
          "showInTable": true,
          "stringLength": 50,
          "required": true
        },
        {
          "id": "password",
          "name": "Password",
          "type": "Password",
          "editable": false,
          "showInTable": false,
          "required": true
        },
        {
          "id": "email",
          "name": "E-mail",
          "type": "String",
          "editable": false,
          "showInTable": true,
          "stringLength": 50,
          "required": true
        },
        {
          "id": "roles",
          "name": "Roles",
          "type": "Enumeration",
          "editable": false,
          "showInTable": false,
          "required": true
        },
        {
          "id": "status",
          "name": "Status",
          "type": "Enumeration",
          "editable": false,
          "showInTable": true,
          "required": true
        },
        {
          "id": 10,
          "name": "infosUser",
          "type": "Relation",
          "editable": true,
          "showInTable": true,
          "referenceType": "1:1",
          "referenceEntity": "InfosUser"
        }
      ]
    },
    {
      "name": "Citoyen",
      "id": 1,
      "lookupField": "1",
      "attachmentsEnabled": true,
      "imageUploadEnabled": true,
      "lazyLoading": true,
      "aclEnabled": true,
      "authorization": [
        {
          "roleId": 1,
          "roleName": "Administrator",
          "createPerm": 1,
          "readPerm": 1,
          "updatePerm": 1,
          "deletePerm": 1,
          "changeOwnerPerm": 1,
          "ownerRoleEnabled": false
        },
        {
          "roleId": 2,
          "roleName": "Public",
          "createPerm": "0",
          "readPerm": "0",
          "updatePerm": "0",
          "deletePerm": "0",
          "changeOwnerPerm": 0,
          "ownerRoleEnabled": false
        },
        {
          "roleId": 3,
          "roleName": "AgentMinJustice",
          "createPerm": "1",
          "readPerm": "1",
          "updatePerm": "1",
          "deletePerm": 0,
          "changeOwnerPerm": 0,
          "ownerRoleEnabled": false
        },
        {
          "roleId": 4,
          "roleName": "Policier",
          "createPerm": "1",
          "readPerm": 0,
          "updatePerm": 0,
          "deletePerm": 0,
          "changeOwnerPerm": 0,
          "ownerRoleEnabled": false
        }
      ],
      "fields": [
        {
          "id": 0,
          "name": "id",
          "type": "Autoincremented ID",
          "editable": false,
          "showInTable": false,
          "required": true
        },
        {
          "id": 1,
          "name": "nom",
          "type": "String",
          "editable": true,
          "showInTable": true,
          "stringLength": 50,
          "required": false
        },
        {
          "id": 2,
          "name": "postNom",
          "type": "String",
          "editable": true,
          "showInTable": true,
          "stringLength": 50,
          "required": false
        },
        {
          "id": 3,
          "name": "prenom",
          "type": "String",
          "editable": true,
          "showInTable": true,
          "stringLength": 50,
          "required": false
        },
        {
          "id": 4,
          "name": "taille",
          "type": "Decimal",
          "editable": true,
          "showInTable": true,
          "integerLength": 5,
          "fractionLength": 2,
          "required": false
        },
        {
          "id": 5,
          "name": "poids",
          "type": "Decimal",
          "editable": true,
          "showInTable": true,
          "integerLength": 5,
          "fractionLength": 2,
          "required": false
        },
        {
          "id": 7,
          "name": "dateNaissance",
          "type": "Date",
          "editable": true,
          "showInTable": true,
          "required": false
        },
        {
          "id": 8,
          "name": "telephone",
          "type": "String",
          "editable": true,
          "showInTable": true,
          "stringLength": 50,
          "required": false
        },
        {
          "id": 9,
          "name": "numIdentification",
          "type": "String",
          "editable": true,
          "showInTable": true,
          "stringLength": 50,
          "required": false
        },
        {
          "id": 10,
          "name": "adresse",
          "type": "String",
          "editable": true,
          "showInTable": true,
          "stringLength": "150",
          "required": false
        }
      ]
    },
    {
      "name": "Infraction",
      "id": 6,
      "lookupField": "1",
      "lazyLoading": true,
      "aclEnabled": true,
      "authorization": [
        {
          "roleId": 1,
          "roleName": "Administrator",
          "createPerm": 1,
          "readPerm": 1,
          "updatePerm": 1,
          "deletePerm": 1,
          "changeOwnerPerm": 1,
          "ownerRoleEnabled": false
        },
        {
          "roleId": 2,
          "roleName": "Public",
          "createPerm": "0",
          "readPerm": "0",
          "updatePerm": "0",
          "deletePerm": "0",
          "changeOwnerPerm": 0,
          "ownerRoleEnabled": false
        },
        {
          "roleId": 3,
          "roleName": "AgentMinJustice",
          "createPerm": 1,
          "readPerm": 1,
          "updatePerm": 1,
          "deletePerm": "0",
          "changeOwnerPerm": 0,
          "ownerRoleEnabled": false
        },
        {
          "roleId": 4,
          "roleName": "Policier",
          "createPerm": "0",
          "readPerm": 1,
          "updatePerm": "0",
          "deletePerm": "0",
          "changeOwnerPerm": 0,
          "ownerRoleEnabled": false
        }
      ],
      "fields": [
        {
          "id": 0,
          "name": "id",
          "type": "Autoincremented ID",
          "editable": false,
          "showInTable": false,
          "required": true
        },
        {
          "id": 1,
          "name": "nom",
          "type": "String",
          "editable": true,
          "showInTable": true,
          "stringLength": 50,
          "required": false
        },
        {
          "id": 3,
          "name": "peine",
          "type": "String",
          "editable": true,
          "showInTable": true,
          "stringLength": 50,
          "required": false
        }
      ]
    },
    {
      "name": "AntecedentJudiciaire",
      "id": 7,
      "lookupField": 0,
      "lazyLoading": true,
      "auditEnabled": true,
      "aclEnabled": true,
      "authorization": [
        {
          "roleId": 1,
          "roleName": "Administrator",
          "createPerm": 1,
          "readPerm": 1,
          "updatePerm": 1,
          "deletePerm": 1,
          "changeOwnerPerm": 1,
          "ownerRoleEnabled": false
        },
        {
          "roleId": 2,
          "roleName": "Public",
          "createPerm": "0",
          "readPerm": "0",
          "updatePerm": "0",
          "deletePerm": "0",
          "changeOwnerPerm": 0,
          "ownerRoleEnabled": false
        },
        {
          "roleId": 3,
          "roleName": "AgentMinJustice",
          "createPerm": 1,
          "readPerm": 1,
          "updatePerm": 1,
          "deletePerm": "0",
          "changeOwnerPerm": 0,
          "ownerRoleEnabled": false
        },
        {
          "roleId": 4,
          "roleName": "Policier",
          "createPerm": "0",
          "readPerm": 1,
          "updatePerm": "0",
          "deletePerm": "0",
          "changeOwnerPerm": 0,
          "ownerRoleEnabled": false
        }
      ],
      "fields": [
        {
          "id": 0,
          "name": "id",
          "type": "Autoincremented ID",
          "editable": false,
          "showInTable": false,
          "required": true
        },
        {
          "id": 1,
          "name": "infraction",
          "type": "Relation",
          "editable": true,
          "showInTable": true,
          "referenceType": "1:n",
          "referenceEntity": "Infraction"
        },
        {
          "id": 2,
          "name": "citoyen",
          "type": "Relation",
          "editable": true,
          "showInTable": true,
          "referenceType": "1:1",
          "referenceEntity": "Citoyen"
        },
        {
          "id": 3,
          "name": "date",
          "type": "Date",
          "editable": true,
          "showInTable": true,
          "required": false
        },
        {
          "id": 5,
          "name": "description",
          "type": "String",
          "editable": true,
          "showInTable": true,
          "stringLength": "500",
          "required": false
        }
      ]
    },
    {
      "name": "InfosUser",
      "id": 8,
      "lookupField": 0,
      "attachmentsEnabled": true,
      "imageUploadEnabled": true,
      "lazyLoading": true,
      "aclEnabled": true,
      "authorization": [
        {
          "roleId": 1,
          "roleName": "Administrator",
          "createPerm": 1,
          "readPerm": 1,
          "updatePerm": 1,
          "deletePerm": 1,
          "changeOwnerPerm": 1,
          "ownerRoleEnabled": false
        },
        {
          "roleId": 2,
          "roleName": "Public",
          "createPerm": "0",
          "readPerm": "0",
          "updatePerm": "0",
          "deletePerm": "0",
          "changeOwnerPerm": 0,
          "ownerRoleEnabled": false
        },
        {
          "roleId": 3,
          "roleName": "AgentMinJustice",
          "createPerm": 1,
          "readPerm": 1,
          "updatePerm": 1,
          "deletePerm": "0",
          "changeOwnerPerm": 0,
          "ownerRoleEnabled": false
        },
        {
          "roleId": 4,
          "roleName": "Policier",
          "createPerm": "0",
          "readPerm": 1,
          "updatePerm": "0",
          "deletePerm": "0",
          "changeOwnerPerm": 0,
          "ownerRoleEnabled": false
        }
      ],
      "fields": [
        {
          "id": 0,
          "name": "id",
          "type": "Autoincremented ID",
          "editable": false,
          "showInTable": false,
          "required": true
        },
        {
          "id": 1,
          "name": "nom",
          "type": "String",
          "editable": true,
          "showInTable": true,
          "stringLength": 50,
          "required": false
        },
        {
          "id": 2,
          "name": "postNom",
          "type": "String",
          "editable": true,
          "showInTable": true,
          "stringLength": 50,
          "required": false
        },
        {
          "id": 3,
          "name": "telephone",
          "type": "String",
          "editable": true,
          "showInTable": true,
          "stringLength": 50,
          "required": false
        },
        {
          "id": 4,
          "name": "numIdentification",
          "type": "String",
          "editable": true,
          "showInTable": true,
          "stringLength": 50,
          "required": false
        },
        {
          "id": 5,
          "name": "adresse",
          "type": "String",
          "editable": true,
          "showInTable": true,
          "stringLength": 50,
          "required": false
        }
      ]
    }
  ],
  "appSettings": {
    "generjeeversion": "1.0",
    "appName": "syscan",
    "package": "org.savanah",
    "masterDetailsStyle": "1",
    "dataListStyle": "1",
    "pfTheme": "omega",
    "runtarget": "as",
    "layer": {
      "rest": false
    },
    "manageRolesAndUsers": true,
    "createRegistrationForm": false,
    "roles": [
      {
        "id": 1,
        "name": "Administrator",
        "canBeDeleted": false
      },
      {
        "id": 2,
        "name": "Public",
        "canBeDeleted": false
      },
      {
        "id": 3,
        "name": "AgentMinJustice",
        "canBeDeleted": true
      },
      {
        "id": 4,
        "name": "Policier",
        "canBeDeleted": true
      }
    ]
  },
  "guid": "663c1fb2-f67a-4ed5-ef5c-dd5e7a2608b4"
}